/*
WARNING: Do NOT edit the input and output ports in this file in a text
editor if you plan to continue editing the block that represents it in
the Block Editor! File corruption is VERY likely to occur.
*/
/*
Copyright (C) 1991-2011 Altera Corporation
Your use of Altera Corporation's design tools, logic functions 
and other software and tools, and its AMPP partner logic 
functions, and any output files from any of the foregoing 
(including device programming or simulation files), and any 
associated documentation or information are expressly subject 
to the terms and conditions of the Altera Program License 
Subscription Agreement, Altera MegaCore Function License 
Agreement, or other applicable license agreement, including, 
without limitation, that your use is for the sole purpose of 
programming logic devices manufactured by Altera and sold by 
Altera or its authorized distributors.  Please refer to the 
applicable agreement for further details.
*/
(header "graphic" (version "1.4"))
(pin
	(input)
	(rect 8 256 184 272)
	(text "INPUT" (rect 133 0 161 10)(font "Arial" (font_size 6)))
	(text "Clock_50_MHZ" (rect 5 0 81 12)(font "Arial" ))
	(pt 176 8)
	(drawing
		(line (pt 92 12)(pt 117 12))
		(line (pt 92 4)(pt 117 4))
		(line (pt 121 8)(pt 176 8))
		(line (pt 92 12)(pt 92 4))
		(line (pt 117 4)(pt 121 8))
		(line (pt 117 12)(pt 121 8))
	)
	(text "VCC" (rect 136 7 156 17)(font "Arial" (font_size 6)))
)
(pin
	(input)
	(rect 16 272 184 288)
	(text "INPUT" (rect 125 0 153 10)(font "Arial" (font_size 6)))
	(text "En" (rect 5 0 18 12)(font "Arial" ))
	(pt 168 8)
	(drawing
		(line (pt 84 12)(pt 109 12))
		(line (pt 84 4)(pt 109 4))
		(line (pt 113 8)(pt 168 8))
		(line (pt 84 12)(pt 84 4))
		(line (pt 109 4)(pt 113 8))
		(line (pt 109 12)(pt 113 8))
	)
	(text "VCC" (rect 128 7 148 17)(font "Arial" (font_size 6)))
)
(pin
	(input)
	(rect 16 288 184 304)
	(text "INPUT" (rect 125 0 153 10)(font "Arial" (font_size 6)))
	(text "Clock_User" (rect 5 0 63 12)(font "Arial" ))
	(pt 168 8)
	(drawing
		(line (pt 84 12)(pt 109 12))
		(line (pt 84 4)(pt 109 4))
		(line (pt 113 8)(pt 168 8))
		(line (pt 84 12)(pt 84 4))
		(line (pt 109 4)(pt 113 8))
		(line (pt 109 12)(pt 113 8))
	)
	(text "VCC" (rect 128 7 148 17)(font "Arial" (font_size 6)))
)
(pin
	(input)
	(rect 16 304 184 320)
	(text "INPUT" (rect 125 0 153 10)(font "Arial" (font_size 6)))
	(text "Data[7..0]" (rect 5 0 55 12)(font "Arial" ))
	(pt 168 8)
	(drawing
		(line (pt 84 12)(pt 109 12))
		(line (pt 84 4)(pt 109 4))
		(line (pt 113 8)(pt 168 8))
		(line (pt 84 12)(pt 84 4))
		(line (pt 109 4)(pt 113 8))
		(line (pt 109 12)(pt 113 8))
	)
	(text "VCC" (rect 128 7 148 17)(font "Arial" (font_size 6)))
)
(pin
	(input)
	(rect 16 320 184 336)
	(text "INPUT" (rect 125 0 153 10)(font "Arial" (font_size 6)))
	(text "Address[2..0]" (rect 5 0 72 12)(font "Arial" ))
	(pt 168 8)
	(drawing
		(line (pt 84 12)(pt 109 12))
		(line (pt 84 4)(pt 109 4))
		(line (pt 113 8)(pt 168 8))
		(line (pt 84 12)(pt 84 4))
		(line (pt 109 4)(pt 113 8))
		(line (pt 109 12)(pt 113 8))
	)
	(text "VCC" (rect 128 7 148 17)(font "Arial" (font_size 6)))
)
(pin
	(output)
	(rect 912 0 1088 16)
	(text "OUTPUT" (rect 1 0 39 10)(font "Arial" (font_size 6)))
	(text "segment_a_3" (rect 90 0 156 12)(font "Arial" ))
	(pt 0 8)
	(drawing
		(line (pt 0 8)(pt 52 8))
		(line (pt 52 4)(pt 78 4))
		(line (pt 52 12)(pt 78 12))
		(line (pt 52 12)(pt 52 4))
		(line (pt 78 4)(pt 82 8))
		(line (pt 82 8)(pt 78 12))
		(line (pt 78 12)(pt 82 8))
	)
)
(pin
	(output)
	(rect 912 16 1088 32)
	(text "OUTPUT" (rect 1 0 39 10)(font "Arial" (font_size 6)))
	(text "segment_b_3" (rect 90 0 156 12)(font "Arial" ))
	(pt 0 8)
	(drawing
		(line (pt 0 8)(pt 52 8))
		(line (pt 52 4)(pt 78 4))
		(line (pt 52 12)(pt 78 12))
		(line (pt 52 12)(pt 52 4))
		(line (pt 78 4)(pt 82 8))
		(line (pt 82 8)(pt 78 12))
		(line (pt 78 12)(pt 82 8))
	)
)
(pin
	(output)
	(rect 912 32 1088 48)
	(text "OUTPUT" (rect 1 0 39 10)(font "Arial" (font_size 6)))
	(text "segment_c_3" (rect 90 0 156 12)(font "Arial" ))
	(pt 0 8)
	(drawing
		(line (pt 0 8)(pt 52 8))
		(line (pt 52 4)(pt 78 4))
		(line (pt 52 12)(pt 78 12))
		(line (pt 52 12)(pt 52 4))
		(line (pt 78 4)(pt 82 8))
		(line (pt 82 8)(pt 78 12))
		(line (pt 78 12)(pt 82 8))
	)
)
(pin
	(output)
	(rect 912 48 1088 64)
	(text "OUTPUT" (rect 1 0 39 10)(font "Arial" (font_size 6)))
	(text "segment_d_3" (rect 90 0 156 12)(font "Arial" ))
	(pt 0 8)
	(drawing
		(line (pt 0 8)(pt 52 8))
		(line (pt 52 4)(pt 78 4))
		(line (pt 52 12)(pt 78 12))
		(line (pt 52 12)(pt 52 4))
		(line (pt 78 4)(pt 82 8))
		(line (pt 82 8)(pt 78 12))
		(line (pt 78 12)(pt 82 8))
	)
)
(pin
	(output)
	(rect 912 64 1088 80)
	(text "OUTPUT" (rect 1 0 39 10)(font "Arial" (font_size 6)))
	(text "segment_e_3" (rect 90 0 156 12)(font "Arial" ))
	(pt 0 8)
	(drawing
		(line (pt 0 8)(pt 52 8))
		(line (pt 52 4)(pt 78 4))
		(line (pt 52 12)(pt 78 12))
		(line (pt 52 12)(pt 52 4))
		(line (pt 78 4)(pt 82 8))
		(line (pt 82 8)(pt 78 12))
		(line (pt 78 12)(pt 82 8))
	)
)
(pin
	(output)
	(rect 912 80 1088 96)
	(text "OUTPUT" (rect 1 0 39 10)(font "Arial" (font_size 6)))
	(text "segment_f_3" (rect 90 0 154 12)(font "Arial" ))
	(pt 0 8)
	(drawing
		(line (pt 0 8)(pt 52 8))
		(line (pt 52 4)(pt 78 4))
		(line (pt 52 12)(pt 78 12))
		(line (pt 52 12)(pt 52 4))
		(line (pt 78 4)(pt 82 8))
		(line (pt 82 8)(pt 78 12))
		(line (pt 78 12)(pt 82 8))
	)
)
(pin
	(output)
	(rect 912 96 1088 112)
	(text "OUTPUT" (rect 1 0 39 10)(font "Arial" (font_size 6)))
	(text "segment_g_3" (rect 90 0 156 12)(font "Arial" ))
	(pt 0 8)
	(drawing
		(line (pt 0 8)(pt 52 8))
		(line (pt 52 4)(pt 78 4))
		(line (pt 52 12)(pt 78 12))
		(line (pt 52 12)(pt 52 4))
		(line (pt 78 4)(pt 82 8))
		(line (pt 82 8)(pt 78 12))
		(line (pt 78 12)(pt 82 8))
	)
)
(pin
	(output)
	(rect 928 192 1104 208)
	(text "OUTPUT" (rect 1 0 39 10)(font "Arial" (font_size 6)))
	(text "segment_a_2" (rect 90 0 156 12)(font "Arial" ))
	(pt 0 8)
	(drawing
		(line (pt 0 8)(pt 52 8))
		(line (pt 52 4)(pt 78 4))
		(line (pt 52 12)(pt 78 12))
		(line (pt 52 12)(pt 52 4))
		(line (pt 78 4)(pt 82 8))
		(line (pt 82 8)(pt 78 12))
		(line (pt 78 12)(pt 82 8))
	)
)
(pin
	(output)
	(rect 928 208 1104 224)
	(text "OUTPUT" (rect 1 0 39 10)(font "Arial" (font_size 6)))
	(text "segment_b_2" (rect 90 0 156 12)(font "Arial" ))
	(pt 0 8)
	(drawing
		(line (pt 0 8)(pt 52 8))
		(line (pt 52 4)(pt 78 4))
		(line (pt 52 12)(pt 78 12))
		(line (pt 52 12)(pt 52 4))
		(line (pt 78 4)(pt 82 8))
		(line (pt 82 8)(pt 78 12))
		(line (pt 78 12)(pt 82 8))
	)
)
(pin
	(output)
	(rect 928 224 1104 240)
	(text "OUTPUT" (rect 1 0 39 10)(font "Arial" (font_size 6)))
	(text "segment_c_2" (rect 90 0 156 12)(font "Arial" ))
	(pt 0 8)
	(drawing
		(line (pt 0 8)(pt 52 8))
		(line (pt 52 4)(pt 78 4))
		(line (pt 52 12)(pt 78 12))
		(line (pt 52 12)(pt 52 4))
		(line (pt 78 4)(pt 82 8))
		(line (pt 82 8)(pt 78 12))
		(line (pt 78 12)(pt 82 8))
	)
)
(pin
	(output)
	(rect 928 240 1104 256)
	(text "OUTPUT" (rect 1 0 39 10)(font "Arial" (font_size 6)))
	(text "segment_d_2" (rect 90 0 156 12)(font "Arial" ))
	(pt 0 8)
	(drawing
		(line (pt 0 8)(pt 52 8))
		(line (pt 52 4)(pt 78 4))
		(line (pt 52 12)(pt 78 12))
		(line (pt 52 12)(pt 52 4))
		(line (pt 78 4)(pt 82 8))
		(line (pt 82 8)(pt 78 12))
		(line (pt 78 12)(pt 82 8))
	)
)
(pin
	(output)
	(rect 928 256 1104 272)
	(text "OUTPUT" (rect 1 0 39 10)(font "Arial" (font_size 6)))
	(text "segment_e_2" (rect 90 0 156 12)(font "Arial" ))
	(pt 0 8)
	(drawing
		(line (pt 0 8)(pt 52 8))
		(line (pt 52 4)(pt 78 4))
		(line (pt 52 12)(pt 78 12))
		(line (pt 52 12)(pt 52 4))
		(line (pt 78 4)(pt 82 8))
		(line (pt 82 8)(pt 78 12))
		(line (pt 78 12)(pt 82 8))
	)
)
(pin
	(output)
	(rect 928 272 1104 288)
	(text "OUTPUT" (rect 1 0 39 10)(font "Arial" (font_size 6)))
	(text "segment_f_2" (rect 90 0 154 12)(font "Arial" ))
	(pt 0 8)
	(drawing
		(line (pt 0 8)(pt 52 8))
		(line (pt 52 4)(pt 78 4))
		(line (pt 52 12)(pt 78 12))
		(line (pt 52 12)(pt 52 4))
		(line (pt 78 4)(pt 82 8))
		(line (pt 82 8)(pt 78 12))
		(line (pt 78 12)(pt 82 8))
	)
)
(pin
	(output)
	(rect 928 288 1104 304)
	(text "OUTPUT" (rect 1 0 39 10)(font "Arial" (font_size 6)))
	(text "segment_g_2" (rect 90 0 156 12)(font "Arial" ))
	(pt 0 8)
	(drawing
		(line (pt 0 8)(pt 52 8))
		(line (pt 52 4)(pt 78 4))
		(line (pt 52 12)(pt 78 12))
		(line (pt 52 12)(pt 52 4))
		(line (pt 78 4)(pt 82 8))
		(line (pt 82 8)(pt 78 12))
		(line (pt 78 12)(pt 82 8))
	)
)
(pin
	(output)
	(rect 936 400 1112 416)
	(text "OUTPUT" (rect 1 0 39 10)(font "Arial" (font_size 6)))
	(text "segment_a_1" (rect 90 0 156 12)(font "Arial" ))
	(pt 0 8)
	(drawing
		(line (pt 0 8)(pt 52 8))
		(line (pt 52 4)(pt 78 4))
		(line (pt 52 12)(pt 78 12))
		(line (pt 52 12)(pt 52 4))
		(line (pt 78 4)(pt 82 8))
		(line (pt 82 8)(pt 78 12))
		(line (pt 78 12)(pt 82 8))
	)
)
(pin
	(output)
	(rect 936 416 1112 432)
	(text "OUTPUT" (rect 1 0 39 10)(font "Arial" (font_size 6)))
	(text "segment_b_1" (rect 90 0 156 12)(font "Arial" ))
	(pt 0 8)
	(drawing
		(line (pt 0 8)(pt 52 8))
		(line (pt 52 4)(pt 78 4))
		(line (pt 52 12)(pt 78 12))
		(line (pt 52 12)(pt 52 4))
		(line (pt 78 4)(pt 82 8))
		(line (pt 82 8)(pt 78 12))
		(line (pt 78 12)(pt 82 8))
	)
)
(pin
	(output)
	(rect 936 432 1112 448)
	(text "OUTPUT" (rect 1 0 39 10)(font "Arial" (font_size 6)))
	(text "segment_c_1" (rect 90 0 156 12)(font "Arial" ))
	(pt 0 8)
	(drawing
		(line (pt 0 8)(pt 52 8))
		(line (pt 52 4)(pt 78 4))
		(line (pt 52 12)(pt 78 12))
		(line (pt 52 12)(pt 52 4))
		(line (pt 78 4)(pt 82 8))
		(line (pt 82 8)(pt 78 12))
		(line (pt 78 12)(pt 82 8))
	)
)
(pin
	(output)
	(rect 936 448 1112 464)
	(text "OUTPUT" (rect 1 0 39 10)(font "Arial" (font_size 6)))
	(text "segment_d_1" (rect 90 0 156 12)(font "Arial" ))
	(pt 0 8)
	(drawing
		(line (pt 0 8)(pt 52 8))
		(line (pt 52 4)(pt 78 4))
		(line (pt 52 12)(pt 78 12))
		(line (pt 52 12)(pt 52 4))
		(line (pt 78 4)(pt 82 8))
		(line (pt 82 8)(pt 78 12))
		(line (pt 78 12)(pt 82 8))
	)
)
(pin
	(output)
	(rect 936 464 1112 480)
	(text "OUTPUT" (rect 1 0 39 10)(font "Arial" (font_size 6)))
	(text "segment_e_1" (rect 90 0 156 12)(font "Arial" ))
	(pt 0 8)
	(drawing
		(line (pt 0 8)(pt 52 8))
		(line (pt 52 4)(pt 78 4))
		(line (pt 52 12)(pt 78 12))
		(line (pt 52 12)(pt 52 4))
		(line (pt 78 4)(pt 82 8))
		(line (pt 82 8)(pt 78 12))
		(line (pt 78 12)(pt 82 8))
	)
)
(pin
	(output)
	(rect 936 480 1112 496)
	(text "OUTPUT" (rect 1 0 39 10)(font "Arial" (font_size 6)))
	(text "segment_f_1" (rect 90 0 154 12)(font "Arial" ))
	(pt 0 8)
	(drawing
		(line (pt 0 8)(pt 52 8))
		(line (pt 52 4)(pt 78 4))
		(line (pt 52 12)(pt 78 12))
		(line (pt 52 12)(pt 52 4))
		(line (pt 78 4)(pt 82 8))
		(line (pt 82 8)(pt 78 12))
		(line (pt 78 12)(pt 82 8))
	)
)
(pin
	(output)
	(rect 936 496 1112 512)
	(text "OUTPUT" (rect 1 0 39 10)(font "Arial" (font_size 6)))
	(text "segment_g_1" (rect 90 0 156 12)(font "Arial" ))
	(pt 0 8)
	(drawing
		(line (pt 0 8)(pt 52 8))
		(line (pt 52 4)(pt 78 4))
		(line (pt 52 12)(pt 78 12))
		(line (pt 52 12)(pt 52 4))
		(line (pt 78 4)(pt 82 8))
		(line (pt 82 8)(pt 78 12))
		(line (pt 78 12)(pt 82 8))
	)
)
(symbol
	(rect 280 232 616 360)
	(text "Fast_Adder" (rect 5 0 61 12)(font "Arial" ))
	(text "inst2" (rect 8 112 31 124)(font "Arial" ))
	(port
		(pt 0 32)
		(input)
		(text "Clock_50_MHZ" (rect 0 0 75 12)(font "Arial" ))
		(text "Clock_50_MHZ" (rect 21 27 96 39)(font "Arial" ))
		(line (pt 0 32)(pt 16 32))
	)
	(port
		(pt 0 48)
		(input)
		(text "En" (rect 0 0 12 12)(font "Arial" ))
		(text "En" (rect 21 43 33 55)(font "Arial" ))
		(line (pt 0 48)(pt 16 48))
	)
	(port
		(pt 0 64)
		(input)
		(text "Clock_User" (rect 0 0 57 12)(font "Arial" ))
		(text "Clock_User" (rect 21 59 78 71)(font "Arial" ))
		(line (pt 0 64)(pt 16 64))
	)
	(port
		(pt 0 80)
		(input)
		(text "Data_User[7..0]" (rect 0 0 79 12)(font "Arial" ))
		(text "Data_User[7..0]" (rect 21 75 100 87)(font "Arial" ))
		(line (pt 0 80)(pt 16 80)(line_width 3))
	)
	(port
		(pt 0 96)
		(input)
		(text "Address_User[2..0]" (rect 0 0 95 12)(font "Arial" ))
		(text "Address_User[2..0]" (rect 21 91 116 103)(font "Arial" ))
		(line (pt 0 96)(pt 16 96)(line_width 3))
	)
	(port
		(pt 336 32)
		(output)
		(text "Sev_Seg_Output_1[3..0]" (rect 0 0 121 12)(font "Arial" ))
		(text "Sev_Seg_Output_1[3..0]" (rect 213 27 334 39)(font "Arial" ))
		(line (pt 336 32)(pt 320 32)(line_width 3))
	)
	(port
		(pt 336 48)
		(output)
		(text "Sev_Seg_Output_2[3..0]" (rect 0 0 121 12)(font "Arial" ))
		(text "Sev_Seg_Output_2[3..0]" (rect 213 43 334 55)(font "Arial" ))
		(line (pt 336 48)(pt 320 48)(line_width 3))
	)
	(port
		(pt 336 64)
		(output)
		(text "Sev_Seg_Output_3[3..0]" (rect 0 0 121 12)(font "Arial" ))
		(text "Sev_Seg_Output_3[3..0]" (rect 213 59 334 71)(font "Arial" ))
		(line (pt 336 64)(pt 320 64)(line_width 3))
	)
	(drawing
		(rectangle (rect 16 16 320 112))
	)
)
(symbol
	(rect 640 -24 864 136)
	(text "dec_7seg_hex" (rect 5 0 75 12)(font "Arial" ))
	(text "inst" (rect 8 144 25 156)(font "Arial" ))
	(port
		(pt 0 32)
		(input)
		(text "hex_digit[3..0]" (rect 0 0 69 12)(font "Arial" ))
		(text "hex_digit[3..0]" (rect 21 27 90 39)(font "Arial" ))
		(line (pt 0 32)(pt 16 32)(line_width 3))
	)
	(port
		(pt 224 32)
		(output)
		(text "segment_a" (rect 0 0 54 12)(font "Arial" ))
		(text "segment_a" (rect 158 27 212 39)(font "Arial" ))
		(line (pt 224 32)(pt 208 32))
	)
	(port
		(pt 224 48)
		(output)
		(text "segment_b" (rect 0 0 54 12)(font "Arial" ))
		(text "segment_b" (rect 158 43 212 55)(font "Arial" ))
		(line (pt 224 48)(pt 208 48))
	)
	(port
		(pt 224 64)
		(output)
		(text "segment_c" (rect 0 0 54 12)(font "Arial" ))
		(text "segment_c" (rect 158 59 212 71)(font "Arial" ))
		(line (pt 224 64)(pt 208 64))
	)
	(port
		(pt 224 80)
		(output)
		(text "segment_d" (rect 0 0 54 12)(font "Arial" ))
		(text "segment_d" (rect 158 75 212 87)(font "Arial" ))
		(line (pt 224 80)(pt 208 80))
	)
	(port
		(pt 224 96)
		(output)
		(text "segment_e" (rect 0 0 54 12)(font "Arial" ))
		(text "segment_e" (rect 158 91 212 103)(font "Arial" ))
		(line (pt 224 96)(pt 208 96))
	)
	(port
		(pt 224 112)
		(output)
		(text "segment_f" (rect 0 0 53 12)(font "Arial" ))
		(text "segment_f" (rect 159 107 212 119)(font "Arial" ))
		(line (pt 224 112)(pt 208 112))
	)
	(port
		(pt 224 128)
		(output)
		(text "segment_g" (rect 0 0 54 12)(font "Arial" ))
		(text "segment_g" (rect 158 123 212 135)(font "Arial" ))
		(line (pt 224 128)(pt 208 128))
	)
	(drawing
		(rectangle (rect 16 16 208 144))
	)
)
(symbol
	(rect 656 168 880 328)
	(text "dec_7seg_hex" (rect 5 0 75 12)(font "Arial" ))
	(text "inst3" (rect 8 144 31 156)(font "Arial" ))
	(port
		(pt 0 32)
		(input)
		(text "hex_digit[3..0]" (rect 0 0 69 12)(font "Arial" ))
		(text "hex_digit[3..0]" (rect 21 27 90 39)(font "Arial" ))
		(line (pt 0 32)(pt 16 32)(line_width 3))
	)
	(port
		(pt 224 32)
		(output)
		(text "segment_a" (rect 0 0 54 12)(font "Arial" ))
		(text "segment_a" (rect 158 27 212 39)(font "Arial" ))
		(line (pt 224 32)(pt 208 32))
	)
	(port
		(pt 224 48)
		(output)
		(text "segment_b" (rect 0 0 54 12)(font "Arial" ))
		(text "segment_b" (rect 158 43 212 55)(font "Arial" ))
		(line (pt 224 48)(pt 208 48))
	)
	(port
		(pt 224 64)
		(output)
		(text "segment_c" (rect 0 0 54 12)(font "Arial" ))
		(text "segment_c" (rect 158 59 212 71)(font "Arial" ))
		(line (pt 224 64)(pt 208 64))
	)
	(port
		(pt 224 80)
		(output)
		(text "segment_d" (rect 0 0 54 12)(font "Arial" ))
		(text "segment_d" (rect 158 75 212 87)(font "Arial" ))
		(line (pt 224 80)(pt 208 80))
	)
	(port
		(pt 224 96)
		(output)
		(text "segment_e" (rect 0 0 54 12)(font "Arial" ))
		(text "segment_e" (rect 158 91 212 103)(font "Arial" ))
		(line (pt 224 96)(pt 208 96))
	)
	(port
		(pt 224 112)
		(output)
		(text "segment_f" (rect 0 0 53 12)(font "Arial" ))
		(text "segment_f" (rect 159 107 212 119)(font "Arial" ))
		(line (pt 224 112)(pt 208 112))
	)
	(port
		(pt 224 128)
		(output)
		(text "segment_g" (rect 0 0 54 12)(font "Arial" ))
		(text "segment_g" (rect 158 123 212 135)(font "Arial" ))
		(line (pt 224 128)(pt 208 128))
	)
	(drawing
		(rectangle (rect 16 16 208 144))
	)
)
(symbol
	(rect 632 376 856 536)
	(text "dec_7seg_hex" (rect 5 0 75 12)(font "Arial" ))
	(text "inst4" (rect 8 144 31 156)(font "Arial" ))
	(port
		(pt 0 32)
		(input)
		(text "hex_digit[3..0]" (rect 0 0 69 12)(font "Arial" ))
		(text "hex_digit[3..0]" (rect 21 27 90 39)(font "Arial" ))
		(line (pt 0 32)(pt 16 32)(line_width 3))
	)
	(port
		(pt 224 32)
		(output)
		(text "segment_a" (rect 0 0 54 12)(font "Arial" ))
		(text "segment_a" (rect 158 27 212 39)(font "Arial" ))
		(line (pt 224 32)(pt 208 32))
	)
	(port
		(pt 224 48)
		(output)
		(text "segment_b" (rect 0 0 54 12)(font "Arial" ))
		(text "segment_b" (rect 158 43 212 55)(font "Arial" ))
		(line (pt 224 48)(pt 208 48))
	)
	(port
		(pt 224 64)
		(output)
		(text "segment_c" (rect 0 0 54 12)(font "Arial" ))
		(text "segment_c" (rect 158 59 212 71)(font "Arial" ))
		(line (pt 224 64)(pt 208 64))
	)
	(port
		(pt 224 80)
		(output)
		(text "segment_d" (rect 0 0 54 12)(font "Arial" ))
		(text "segment_d" (rect 158 75 212 87)(font "Arial" ))
		(line (pt 224 80)(pt 208 80))
	)
	(port
		(pt 224 96)
		(output)
		(text "segment_e" (rect 0 0 54 12)(font "Arial" ))
		(text "segment_e" (rect 158 91 212 103)(font "Arial" ))
		(line (pt 224 96)(pt 208 96))
	)
	(port
		(pt 224 112)
		(output)
		(text "segment_f" (rect 0 0 53 12)(font "Arial" ))
		(text "segment_f" (rect 159 107 212 119)(font "Arial" ))
		(line (pt 224 112)(pt 208 112))
	)
	(port
		(pt 224 128)
		(output)
		(text "segment_g" (rect 0 0 54 12)(font "Arial" ))
		(text "segment_g" (rect 158 123 212 135)(font "Arial" ))
		(line (pt 224 128)(pt 208 128))
	)
	(drawing
		(rectangle (rect 16 16 208 144))
	)
)
(symbol
	(rect 216 280 264 312)
	(text "NOT" (rect 1 0 21 10)(font "Arial" (font_size 6)))
	(text "inst5" (rect 3 21 26 33)(font "Arial" ))
	(port
		(pt 0 16)
		(input)
		(text "IN" (rect 2 7 13 19)(font "Courier New" (bold))(invisible))
		(text "IN" (rect 2 7 13 19)(font "Courier New" (bold))(invisible))
		(line (pt 0 16)(pt 13 16))
	)
	(port
		(pt 48 16)
		(output)
		(text "OUT" (rect 32 7 49 19)(font "Courier New" (bold))(invisible))
		(text "OUT" (rect 32 7 49 19)(font "Courier New" (bold))(invisible))
		(line (pt 39 16)(pt 48 16))
	)
	(drawing
		(line (pt 13 25)(pt 13 7))
		(line (pt 13 7)(pt 31 16))
		(line (pt 13 25)(pt 31 16))
		(circle (rect 31 12 39 20))
	)
)
(connector
	(pt 184 264)
	(pt 280 264)
)
(connector
	(pt 184 280)
	(pt 280 280)
)
(connector
	(pt 264 296)
	(pt 280 296)
)
(connector
	(pt 184 312)
	(pt 280 312)
	(bus)
)
(connector
	(pt 184 328)
	(pt 280 328)
	(bus)
)
(connector
	(pt 184 296)
	(pt 216 296)
)
(connector
	(pt 616 296)
	(pt 632 296)
	(bus)
)
(connector
	(pt 632 296)
	(pt 632 408)
	(bus)
)
(connector
	(pt 616 280)
	(pt 656 280)
	(bus)
)
(connector
	(pt 656 280)
	(pt 656 200)
	(bus)
)
(connector
	(pt 616 264)
	(pt 640 264)
	(bus)
)
(connector
	(pt 640 264)
	(pt 640 8)
	(bus)
)
(connector
	(pt 864 8)
	(pt 912 8)
)
(connector
	(pt 864 24)
	(pt 912 24)
)
(connector
	(pt 864 40)
	(pt 912 40)
)
(connector
	(pt 864 56)
	(pt 912 56)
)
(connector
	(pt 864 72)
	(pt 912 72)
)
(connector
	(pt 864 88)
	(pt 912 88)
)
(connector
	(pt 864 104)
	(pt 912 104)
)
(connector
	(pt 880 200)
	(pt 928 200)
)
(connector
	(pt 880 232)
	(pt 928 232)
)
(connector
	(pt 880 216)
	(pt 928 216)
)
(connector
	(pt 880 248)
	(pt 928 248)
)
(connector
	(pt 880 264)
	(pt 928 264)
)
(connector
	(pt 880 280)
	(pt 928 280)
)
(connector
	(pt 880 296)
	(pt 928 296)
)
(connector
	(pt 856 408)
	(pt 936 408)
)
(connector
	(pt 856 424)
	(pt 936 424)
)
(connector
	(pt 856 440)
	(pt 936 440)
)
(connector
	(pt 856 456)
	(pt 936 456)
)
(connector
	(pt 856 472)
	(pt 936 472)
)
(connector
	(pt 856 488)
	(pt 936 488)
)
(connector
	(pt 856 504)
	(pt 936 504)
)
