/*
WARNING: Do NOT edit the input and output ports in this file in a text
editor if you plan to continue editing the block that represents it in
the Block Editor! File corruption is VERY likely to occur.
*/
/*
Copyright (C) 1991-2011 Altera Corporation
Your use of Altera Corporation's design tools, logic functions 
and other software and tools, and its AMPP partner logic 
functions, and any output files from any of the foregoing 
(including device programming or simulation files), and any 
associated documentation or information are expressly subject 
to the terms and conditions of the Altera Program License 
Subscription Agreement, Altera MegaCore Function License 
Agreement, or other applicable license agreement, including, 
without limitation, that your use is for the sole purpose of 
programming logic devices manufactured by Altera and sold by 
Altera or its authorized distributors.  Please refer to the 
applicable agreement for further details.
*/
(header "graphic" (version "1.4"))
(pin
	(input)
	(rect 56 232 224 248)
	(text "INPUT" (rect 125 0 153 10)(font "Arial" (font_size 6)))
	(text "En" (rect 5 0 17 12)(font "Arial" ))
	(pt 168 8)
	(drawing
		(line (pt 84 12)(pt 109 12))
		(line (pt 84 4)(pt 109 4))
		(line (pt 113 8)(pt 168 8))
		(line (pt 84 12)(pt 84 4))
		(line (pt 109 4)(pt 113 8))
		(line (pt 109 12)(pt 113 8))
	)
	(text "VCC" (rect 128 7 148 17)(font "Arial" (font_size 6)))
)
(pin
	(input)
	(rect 56 248 224 264)
	(text "INPUT" (rect 125 0 153 10)(font "Arial" (font_size 6)))
	(text "Clock_User" (rect 5 0 63 12)(font "Arial" ))
	(pt 168 8)
	(drawing
		(line (pt 84 12)(pt 109 12))
		(line (pt 84 4)(pt 109 4))
		(line (pt 113 8)(pt 168 8))
		(line (pt 84 12)(pt 84 4))
		(line (pt 109 4)(pt 113 8))
		(line (pt 109 12)(pt 113 8))
	)
	(text "VCC" (rect 128 7 148 17)(font "Arial" (font_size 6)))
)
(pin
	(input)
	(rect 56 264 224 280)
	(text "INPUT" (rect 125 0 153 10)(font "Arial" (font_size 6)))
	(text "Data[7..0]" (rect 5 0 55 12)(font "Arial" ))
	(pt 168 8)
	(drawing
		(line (pt 84 12)(pt 109 12))
		(line (pt 84 4)(pt 109 4))
		(line (pt 113 8)(pt 168 8))
		(line (pt 84 12)(pt 84 4))
		(line (pt 109 4)(pt 113 8))
		(line (pt 109 12)(pt 113 8))
	)
	(text "VCC" (rect 128 7 148 17)(font "Arial" (font_size 6)))
)
(pin
	(input)
	(rect 56 280 224 296)
	(text "INPUT" (rect 125 0 153 10)(font "Arial" (font_size 6)))
	(text "Address[2..0]" (rect 5 0 72 12)(font "Arial" ))
	(pt 168 8)
	(drawing
		(line (pt 84 12)(pt 109 12))
		(line (pt 84 4)(pt 109 4))
		(line (pt 113 8)(pt 168 8))
		(line (pt 84 12)(pt 84 4))
		(line (pt 109 4)(pt 113 8))
		(line (pt 109 12)(pt 113 8))
	)
	(text "VCC" (rect 128 7 148 17)(font "Arial" (font_size 6)))
)
(pin
	(input)
	(rect 48 216 224 232)
	(text "INPUT" (rect 133 0 161 10)(font "Arial" (font_size 6)))
	(text "Clock_50_MHZ" (rect 5 0 81 12)(font "Arial" ))
	(pt 176 8)
	(drawing
		(line (pt 92 12)(pt 117 12))
		(line (pt 92 4)(pt 117 4))
		(line (pt 121 8)(pt 176 8))
		(line (pt 92 12)(pt 92 4))
		(line (pt 117 4)(pt 121 8))
		(line (pt 117 12)(pt 121 8))
	)
	(text "VCC" (rect 136 7 156 17)(font "Arial" (font_size 6)))
)
(symbol
	(rect 280 240 328 272)
	(text "NOT" (rect 1 0 21 10)(font "Arial" (font_size 6)))
	(text "inst" (rect 3 21 20 33)(font "Arial" ))
	(port
		(pt 0 16)
		(input)
		(text "IN" (rect 2 7 13 19)(font "Courier New" (bold))(invisible))
		(text "IN" (rect 2 7 13 19)(font "Courier New" (bold))(invisible))
		(line (pt 0 16)(pt 13 16))
	)
	(port
		(pt 48 16)
		(output)
		(text "OUT" (rect 32 7 49 19)(font "Courier New" (bold))(invisible))
		(text "OUT" (rect 32 7 49 19)(font "Courier New" (bold))(invisible))
		(line (pt 39 16)(pt 48 16))
	)
	(drawing
		(line (pt 13 25)(pt 13 7))
		(line (pt 13 7)(pt 31 16))
		(line (pt 13 25)(pt 31 16))
		(circle (rect 31 12 39 20))
	)
)
(connector
	(pt 224 256)
	(pt 280 256)
)
(connector
	(pt 224 240)
	(pt 416 240)
)
(connector
	(pt 224 224)
	(pt 416 224)
)
(connector
	(pt 224 272)
	(pt 416 272)
	(bus)
)
(connector
	(pt 224 288)
	(pt 416 288)
	(bus)
)
(connector
	(pt 328 256)
	(pt 416 256)
)
